{
    "defaultSeverity": "error",
    // make sure "tslint-config-prettier" is at the end
    "extends": ["tslint:latest", "tslint-config-prettier"],
    "jsRules": {
        "no-unused-expression": true
    },
    "rules": {
        "no-implicit-dependencies": [true, "dev"],
        "no-submodule-imports": false,
        "import-blacklist": [true, "rxjs", "rxjs/Rx"],
        "eofline": false,
        "indent": false,
        "member-access": [true, "no-public"],
        "ordered-imports": [false],
        "member-ordering": [false],
        "curly": false,
        "interface-name": [false],
        "array-type": [false],
        "no-empty-interface": false,
        "no-empty": false,
        "arrow-parens": false,
        "object-literal-sort-keys": false,
        "no-unused-expression": false,
        "max-classes-per-file": [false],
        "variable-name": [false],
        "one-line": [false],
        "one-variable-per-declaration": [false]
    },
    "rulesDirectory": []
}
